%YAML 1.1
%TAG !u! tag:unity3d.com,2011:
--- !u!1045 &1
EditorBuildSettings:
  m_ObjectHideFlags: 0
  serializedVersion: 2
  m_Scenes:
  - enabled: 1
    path: Assets/_IMPORTED/Photon Unity Networking/Demos/DemoHub/DemoHub-Scene.unity
  - enabled: 1
    path: Assets/_IMPORTED/Photon Unity Networking/Demos/DemoBoxes/DemoBoxes-Scene.unity
  - enabled: 1
    path: Assets/_IMPORTED/Photon Unity Networking/Demos/DemoFriendsAndCustomAuth/DemoFriends-Scene.unity
  - enabled: 1
    path: Assets/_IMPORTED/Photon Unity Networking/Demos/DemoSynchronization/DemoSynchronization-Scene.unity
  - enabled: 1
    path: Assets/_IMPORTED/Photon Unity Networking/Demos/DemoWorker/DemoWorker-Scene.unity
  - enabled: 1
    path: Assets/_IMPORTED/Photon Unity Networking/Demos/DemoWorker/DemoWorkerGame-Scene.unity
  - enabled: 1
    path: Assets/_IMPORTED/Photon Unity Networking/Demos/MarcoPolo-Tutorial/MarcoPolo-Scene.unity
